{
	"15affc00-64d7-45af-af7c-1da0a12555e9": {
		"id": "15affc00-64d7-45af-af7c-1da0a12555e9",
		"organization_id": "a4fc3f1f-6c6e-4e5d-9490-2fa242a83569",
		"status": "DRAFT",
		"creator_id": "36a6e8c3-3517-4cd9-a7e8-b1f7e5ab11f1",
		"created_at": 1598611645,
		"updated_at": 1598611645,
		"active_app_views": {
			"v1": {
				"non_functional": false,
				"research_only": true,
				"version": "v1.2",
				"details": {
					"name": "PD-L1 Quantifier",
					"marketplace_url": "http://url.to/store",
					"description": [
						{
							"lang": "EN",
							"text": "Some text"
						}
					]
				},
				"media": {
					"peek": [],
					"banner": [],
					"workflow": [],
					"manual": []
				},
				"tags": {
					"tissues": [],
					"stains": [],
					"indications": [],
					"analysis": [],
					"clearances": []
				},
				"created_at": 1598611645,
				"reviewed_at": 1598611645,
				"id": "16a9729d-2a11-455e-84e6-e8596a482a6c",
				"portal_app_id": "15affc00-64d7-45af-af7c-1da0a12555e9",
				"organization_id": "a4fc3f1f-6c6e-4e5d-9490-2fa242a83569",
				"status": "DRAFT",
				"app": {
					"ead": {
						"$schema": "https://developer.empaia.org/schema/ead-app-schema-draft-3.json",
						"name": "JES Test App v1",
						"name_short": "JTAv1",
						"namespace": "org.empaia.dailab.jestestapp.v1",
						"description": "Human readable description",
						"configuration": {
							"private_string_global": {
								"type": "string",
								"optional": false,
								"storage": "global"
							},
							"private_int_global": {
								"type": "integer",
								"optional": false,
								"storage": "global"
							}
						},
						"inputs": {
							"my_wsi": {
								"type": "wsi"
							},
							"my_rectangle": {
								"type": "rectangle",
								"reference": "inputs.my_wsi"
							}
						},
						"outputs": {
							"tumor_cell_count": {
								"type": "integer"
							}
						}
					},
					"registry_image_url": "registry.gitlab.com/empaia/integration/sample-apps/org-empaia-dailab-jestestapp:v1",
					"app_ui_url": "http://app1.emapaia.org",
					"app_ui_configuration": {
						"csp": null,
						"iframe": null,
						"tested": null
					},
					"id": "b10648a7-340d-43fc-a2d9-4d91cc86f33f",
					"version": "v1.2",
					"has_frontend": true,
					"status": "DRAFT",
					"portal_app_id": "15affc00-64d7-45af-af7c-1da0a12555e9",
					"creator_id": "36a6e8c3-3517-4cd9-a7e8-b1f7e5ab11f1",
					"created_at": 1598611645,
					"updated_at": 1598611645
				},
				"creator_id": "36a6e8c3-3517-4cd9-a7e8-b1f7e5ab11f1",
				"review_comment": "Review comment",
				"api_version": "v1",
				"reviewer_id": "36a6e8c3-3517-4cd9-a7e8-b1f7e5ab11f1"
			},
			"v2": {
				"non_functional": false,
				"research_only": false,
				"version": "v1.2",
				"details": {
					"name": "PD-L1 Quantifier",
					"marketplace_url": "http://url.to/store",
					"description": [
						{
							"lang": "EN",
							"text": "Some text"
						}
					]
				},
				"media": {
					"peek": [],
					"banner": [],
					"workflow": [],
					"manual": []
				},
				"tags": {
					"tissues": [],
					"stains": [],
					"indications": [],
					"analysis": [],
					"clearances": []
				},
				"created_at": 1598611645,
				"reviewed_at": 1598611645,
				"id": "ce1fe928-7693-4f9a-abd3-b18fc70d3ee0",
				"portal_app_id": "15affc00-64d7-45af-af7c-1da0a12555e9",
				"organization_id": "a4fc3f1f-6c6e-4e5d-9490-2fa242a83569",
				"status": "DRAFT",
				"app": {
					"ead": {
						"$schema": "https://developer.empaia.org/schema/ead-app-schema-draft-3.json",
						"name": "JES Test App v2",
						"name_short": "JTAv2",
						"namespace": "org.empaia.dailab.jestestapp.v2",
						"description": "Human readable description",
						"configuration": {
							"private_string_global": {
								"type": "string",
								"optional": false,
								"storage": "global"
							},
							"private_int_global": {
								"type": "integer",
								"optional": false,
								"storage": "global"
							}
						},
						"inputs": {
							"my_wsi": {
								"type": "wsi"
							},
							"my_rectangle": {
								"type": "rectangle",
								"reference": "inputs.my_wsi"
							}
						},
						"outputs": {
							"tumor_cell_count": {
								"type": "integer"
							}
						}
					},
					"registry_image_url": "https://registry.gitlab.com/empaia/integration/ap_xyz",
					"app_ui_url": "http://app1.emapaia.org",
					"app_ui_configuration": {
						"csp": null,
						"iframe": null,
						"tested": null
					},
					"id": "e7daf5a3-c7fc-46f2-8b2e-46cb35287b99",
					"version": "v1.2",
					"has_frontend": true,
					"status": "DRAFT",
					"portal_app_id": "15affc00-64d7-45af-af7c-1da0a12555e9",
					"creator_id": "36a6e8c3-3517-4cd9-a7e8-b1f7e5ab11f1",
					"created_at": 1598611645,
					"updated_at": 1598611645
				},
				"creator_id": "36a6e8c3-3517-4cd9-a7e8-b1f7e5ab11f1",
				"review_comment": "Review comment",
				"api_version": "v2",
				"reviewer_id": "36a6e8c3-3517-4cd9-a7e8-b1f7e5ab11f1"
			},
			"v3": {
				"non_functional": false,
				"research_only": false,
				"version": "v1.2",
				"details": {
					"name": "PD-L1 Quantifier",
					"marketplace_url": "http://url.to/store",
					"description": [
						{
							"lang": "EN",
							"text": "Some text"
						}
					]
				},
				"media": {
					"peek": [],
					"banner": [],
					"workflow": [],
					"manual": []
				},
				"tags": {
					"tissues": [],
					"stains": [],
					"indications": [],
					"analysis": [],
					"clearances": []
				},
				"created_at": 1598611645,
				"reviewed_at": 1598611645,
				"id": "a7506f3e-f5a7-46a6-96f4-60de79d00ce3",
				"portal_app_id": "15affc00-64d7-45af-af7c-1da0a12555e9",
				"organization_id": "a4fc3f1f-6c6e-4e5d-9490-2fa242a83569",
				"status": "DRAFT",
				"app": {
					"ead": {
						"$schema": "https://gitlab.com/empaia/integration/definitions/-/raw/main/ead/ead-schema.v3.json",
						"name": "JES Test App v3",
						"name_short": "JTAv3",
						"namespace": "org.empaia.dailab.jestestapp.v3.0",
						"description": "Human readable description",
						"configuration": {
							"global": {
								"private_string_global": {
									"type": "string",
									"optional": false
								},
								"private_int_global": {
									"type": "integer",
									"optional": false
								}
							},
							"customer": {
								"private_string_customer": {
									"type": "string",
									"optional": false
								},
								"private_int_customer": {
									"type": "integer",
									"optional": false
								}
							}
						},
						"io": {
							"my_wsi": {
								"type": "wsi"
							},
							"my_rectangle": {
								"type": "rectangle",
								"reference": "io.my_wsi"
							},
							"tumor_cell_count": {
								"type": "integer"
							}
						},
						"modes": {
							"standalone": {
								"inputs": [
									"my_wsi",
									"my_rectangle"
								],
								"outputs": [
									"tumor_cell_count"
								]
							}
						}
					},
					"registry_image_url": "https://registry.gitlab.com/empaia/integration/ap_xyz",
					"app_ui_url": "http://app1.emapaia.org",
					"app_ui_configuration": {
						"csp": null,
						"iframe": null,
						"tested": null
					},
					"id": "772c3c6c-09ed-4d76-8c11-e4d2313692ed",
					"version": "v1.2",
					"has_frontend": true,
					"status": "DRAFT",
					"portal_app_id": "15affc00-64d7-45af-af7c-1da0a12555e9",
					"creator_id": "36a6e8c3-3517-4cd9-a7e8-b1f7e5ab11f1",
					"created_at": 1598611645,
					"updated_at": 1598611645
				},
				"creator_id": "36a6e8c3-3517-4cd9-a7e8-b1f7e5ab11f1",
				"review_comment": "Review comment",
				"api_version": "v3",
				"reviewer_id": "36a6e8c3-3517-4cd9-a7e8-b1f7e5ab11f1"
			}
		}
	}
}